wave.vcd
$date
	Fri Feb 24 02:39:03 2023
$end
$version
	Icarus Verilog
$end
$timescale
	1ns
$end
$scope module testbench $end
$var wire 6 ! led [5:0] $end
$var reg 1 " clk $end
$var reg 1 # uart_rx $end
$scope module u_uart $end
$var wire 1 $ KEYS1 $end
$var wire 1 % KEYS2 $end
$var wire 1 " clk $end
$var wire 1 # uart_rx $end
$var parameter 32 & BAUDRATE_CNT $end
$var parameter 32 ' HALF_BAUD_CNT $end
$var parameter 32 ( RX_STATE_IDLE $end
$var parameter 32 ) RX_STATE_READ $end
$var parameter 32 * RX_STATE_START $end
$var parameter 32 + RX_STATE_STOP $end
$var parameter 32 , RX_STATE_WAIT_READ $end
$var reg 4 - baud_cnt [3:0] $end
$var reg 3 . bit_number [2:0] $end
$var reg 1 / byte_ok $end
$var reg 6 0 led [5:0] $end
$var reg 8 1 recv_btye [7:0] $end
$var reg 3 2 state [2:0] $end
$var reg 1 3 uart_tx $end
$upscope $end
$upscope $end
$scope module testbench $end
$scope module u_uart $end
$upscope $end
$upscope $end
$enddefinitions $end
$comment Show the parameter values. $end
$dumpall
b10 ,
b100 +
b1 *
b11 )
b0 (
b100 '
b1000 &
$end
#0
$dumpvars
x3
b0 2
b0 1
b111111 0
0/
b0 .
b0 -
z%
z$
1#
1"
b111111 !
$end
#1
0"
#2
1"
#3
0"
#4
1"
#5
0"
#6
1"
#7
0"
#8
1"
#9
0"
#10
1"
#11
0"
#12
1"
#13
0"
#14
1"
#15
0"
#16
1"
#17
0"
#18
1"
#19
0"
#20
1"
#21
0"
#22
1"
#23
0"
#24
1"
#25
0"
#26
1"
#27
0"
#28
1"
#29
0"
#30
1"
#31
0"
#32
1"
#33
0"
#34
1"
#35
0"
#36
1"
#37
0"
#38
1"
#39
0"
#40
b1 2
1"
0#
#41
0"
#42
b1 -
1"
#43
0"
#44
b10 -
1"
#45
0"
#46
b11 -
1"
#47
0"
#48
b10 2
b0 -
1"
#49
0"
#50
b1 -
1"
#51
0"
#52
b10 -
1"
#53
0"
#54
b11 -
1"
#55
0"
#56
b100 -
1"
1#
#57
0"
#58
b101 -
1"
#59
0"
#60
b110 -
1"
#61
0"
#62
b111 -
1"
#63
0"
#64
b11 2
b0 -
1"
#65
0"
#66
b1 .
b10 2
b10000000 1
b1 -
1"
#67
0"
#68
b10 -
1"
#69
0"
#70
b11 -
1"
#71
0"
#72
b100 -
1"
0#
#73
0"
#74
b101 -
1"
#75
0"
#76
b110 -
1"
#77
0"
#78
b111 -
1"
#79
0"
#80
b11 2
b0 -
1"
#81
0"
#82
b10 .
b10 2
b1000000 1
b1 -
1"
#83
0"
#84
b10 -
1"
#85
0"
#86
b11 -
1"
#87
0"
#88
b100 -
1"
1#
#89
0"
#90
b101 -
1"
#91
0"
#92
b110 -
1"
#93
0"
#94
b111 -
1"
#95
0"
#96
b11 2
b0 -
1"
#97
0"
#98
b11 .
b10 2
b10100000 1
b1 -
1"
#99
0"
#100
b10 -
1"
#101
0"
#102
b11 -
1"
#103
0"
#104
b100 -
1"
0#
#105
0"
#106
b101 -
1"
#107
0"
#108
b110 -
1"
#109
0"
#110
b111 -
1"
#111
0"
#112
b11 2
b0 -
1"
#113
0"
#114
b100 .
b10 2
b1010000 1
b1 -
1"
#115
0"
#116
b10 -
1"
#117
0"
#118
b11 -
1"
#119
0"
#120
b100 -
1"
1#
#121
0"
#122
b101 -
1"
#123
0"
#124
b110 -
1"
#125
0"
#126
b111 -
1"
#127
0"
#128
b11 2
b0 -
1"
#129
0"
#130
b101 .
b10 2
b10101000 1
b1 -
1"
#131
0"
#132
b10 -
1"
#133
0"
#134
b11 -
1"
#135
0"
#136
b100 -
1"
0#
#137
0"
#138
b101 -
1"
#139
0"
#140
b110 -
1"
#141
0"
#142
b111 -
1"
#143
0"
#144
b11 2
b0 -
1"
#145
0"
#146
b110 .
b10 2
b1010100 1
b1 -
1"
#147
0"
#148
b10 -
1"
#149
0"
#150
b11 -
1"
#151
0"
#152
b100 -
1"
1#
#153
0"
#154
b101 -
1"
#155
0"
#156
b110 -
1"
#157
0"
#158
b111 -
1"
#159
0"
#160
b11 2
b0 -
1"
#161
0"
#162
b111 .
b10 2
b10101010 1
b1 -
1"
#163
0"
#164
b10 -
1"
#165
0"
#166
b11 -
1"
#167
0"
#168
b100 -
1"
0#
#169
0"
#170
b101 -
1"
#171
0"
#172
b110 -
1"
#173
0"
#174
b111 -
1"
#175
0"
#176
b11 2
b0 -
1"
#177
0"
#178
b0 .
b100 2
b1010101 1
b1 -
1"
#179
0"
#180
1/
b10 -
1"
#181
0"
#182
b101010 !
b101010 0
b11 -
1"
#183
0"
#184
b100 -
1"
1#
#185
0"
#186
b101 -
1"
#187
0"
#188
b110 -
1"
#189
0"
#190
b111 -
1"
#191
0"
#192
b0 2
b0 -
1"
